file: book_transcription/separated_audio.wav
tpb: 1
bpb: 2 
up: 0 
tempo: 220
dur: 34



3.060000000
3.640000000
4.180000000
4.740000000
5.310000000
5.890000000
6.460000000
7.010000000
7.490000000
8.080000000
8.720000000
9.280000000
9.850000000
10.410000000
10.990000000
11.580000000
12.170000000
12.720000000
13.300000000
13.850000000
14.430000000
15.000000000
15.550000000
16.110000000
16.690000000
17.280000000
17.860000000
18.390000000
18.970000000
19.540000000
20.120000000
20.680000000
21.240000000
21.790000000
22.330000000
22.920000000
23.480000000
24.050000000
24.610000000
25.170000000
25.680000000
26.290000000
26.880000000
27.460000000
28.020000000
28.600000000
29.180000000
29.750000000
30.310000000
30.880000000
31.460000000
32.010000000
32.580000000
33.070000000
33.640000000
34.193333333
34.746666667

